Hue_1,Sat_1,Val_1,Image_FileName,New_lables
22,225,134,Roxirite_2749_full.bmp,5
21,221,113,Roxirite_2750_full.bmp,5
22,223,134,Roxirite_2751_full.bmp,5
22,223,137,Roxirite_2752_full.bmp,5
22,223,137,Roxirite_2753_full.bmp,5
22,225,135,Roxirite_2754_full.bmp,5
22,223,145,Roxirite_2755_full.bmp,5
22,222,139,Roxirite_2756_full.bmp,5
23,230,143,Roxirite_2757_full.bmp,5
22,223,137,Roxirite_2758_full.bmp,5
23,226,143,Roxirite_2759_full.bmp,5
22,221,112,Roxirite_2760_full.bmp,5
23,226,142,Roxirite_2761_full.bmp,5
22,221,134,Roxirite_2762_full.bmp,5
23,225,143,Roxirite_2763_full.bmp,5
22,219,133,Roxirite_2764_full.bmp,5
22,223,145,Roxirite_2765_full.bmp,5
22,218,138,Roxirite_2766_full.bmp,5
