126,241,106,0,0,0,1,Image00051.png
126,241,109,0,0,0,1,Image00054.png
126,239,109,0,0,0,1,Image00055.png
126,238,107,0,0,0,1,Image00056.png
126,241,107,0,0,0,1,Image00060.png
126,241,109,0,0,0,1,Image00061.png
126,238,104,0,0,0,1,Image00062.png
126,239,109,0,0,0,1,Image00064.png
126,241,108,0,0,0,1,Image00067.png
126,241,108,0,0,0,1,Image00070.png
126,240,105,0,0,0,1,Image00073.png
126,241,108,0,0,0,1,Image00075.png
126,241,109,0,0,0,1,Image00078.png
126,238,107,0,0,0,1,Image00079.png
126,241,106,0,0,0,1,Image00081.png
126,241,107,0,0,0,1,Image00084.png
126,241,109,0,0,0,1,Image00085.png
126,238,103,0,0,0,1,Image00086.png
126,238,108,0,0,0,1,Image00087.png
126,239,109,0,0,0,1,Image00088.png
126,241,110,0,0,0,1,Image00090.png
126,241,110,0,0,0,1,Image00095.png
126,240,104,0,0,0,1,Image00105.png
126,241,111,0,0,0,1,Image00143.png
126,241,109,0,0,0,1,Image00173.png
126,241,108,0,0,0,1,Image00174.png
126,241,109,0,0,0,1,Image00178.png
126,241,109,0,0,0,1,Image00179.png
126,241,107,0,0,0,1,Image00184.png
126,241,111,0,0,0,1,Image00186.png
126,241,106,0,0,0,1,Image00189.png
126,241,108,0,0,0,1,Image00190.png
126,241,109,0,0,0,1,Image00192.png
126,241,106,0,0,0,1,Image00193.png
126,241,108,0,0,0,1,Image00194.png
126,239,110,0,0,0,1,Image00197.png
126,238,108,0,0,0,1,Image00198.png
126,240,105,0,0,0,1,Image00199.png
126,241,107,0,0,0,1,Image00203.png
126,238,104,0,0,0,1,Image00205.png
126,238,108,0,0,0,1,Image00206.png
126,239,110,0,0,0,1,Image00207.png
126,241,108,0,0,0,1,Image00210.png
126,241,108,0,0,0,1,Image00211.png
126,240,103,0,0,0,1,Image00212.png
126,243,107,0,0,0,1,Image00216.png
126,240,104,0,0,0,1,Image00227.png
126,241,108,0,0,0,1,Image00295.png
126,241,108,0,0,0,1,Image00296.png
126,241,112,0,0,0,1,Image00300.png
126,239,110,0,0,0,1,Image00301.png
126,241,109,0,0,0,1,Image00302.png
126,239,110,0,0,0,1,Image00303.png
126,241,106,0,0,0,1,Image00304.png
126,239,113,0,0,0,1,Image00306.png
126,241,109,0,0,0,1,Image00308.png
126,241,111,0,0,0,1,Image00312.png
126,241,111,0,0,0,1,Image00314.png
126,241,109,0,0,0,1,Image00316.png
126,241,109,0,0,0,1,Image00320.png
126,241,106,0,0,0,1,Image00321.png
126,241,112,0,0,0,1,Image00324.png
126,241,109,0,0,0,1,Image00326.png
126,238,108,0,0,0,1,Image00327.png
126,241,110,0,0,0,1,Image00328.png
126,241,108,0,0,0,1,Image00329.png
126,239,109,0,0,0,1,Image00332.png
126,239,112,0,0,0,1,Image00334.png
126,241,108,0,0,0,1,Image00338.png
126,241,111,0,0,0,1,Image00339.png
126,239,111,0,0,0,1,Image00340.png
126,241,110,0,0,0,1,Image00410.png
126,239,110,0,0,0,1,Image00411.png
126,241,111,0,0,0,1,Image00414.png
126,239,110,0,0,0,1,Image00415.png
126,238,108,0,0,0,1,Image00416.png
126,241,113,0,0,0,1,Image00418.png
126,241,110,0,0,0,1,Image00420.png
126,239,113,0,0,0,1,Image00424.png
126,241,110,0,0,0,1,Image00425.png
126,241,109,0,0,0,1,Image00428.png
126,241,106,0,0,0,1,Image00429.png
126,241,107,0,0,0,1,Image00430.png
126,241,112,0,0,0,1,Image00433.png
126,239,109,0,0,0,1,Image00435.png
126,241,106,0,0,0,1,Image00437.png
126,241,112,0,0,0,1,Image00440.png
126,239,110,0,0,0,1,Image00445.png
126,241,107,0,0,0,1,Image00449.png
126,239,110,0,0,0,1,Image00451.png
126,241,110,0,0,0,1,Image00528.png
126,241,109,0,0,0,1,Image00530.png
126,241,111,0,0,0,1,Image00531.png
126,243,110,0,0,0,1,Image00533.png
126,241,110,0,0,0,1,Image00534.png
126,241,106,0,0,0,1,Image00536.png
126,241,109,0,0,0,1,Image00541.png
126,241,108,0,0,0,1,Image00543.png
126,241,109,0,0,0,1,Image00551.png
126,241,109,0,0,0,1,Image00554.png
126,241,110,0,0,0,1,Image00555.png
126,241,107,0,0,0,1,Image00557.png
126,241,109,0,0,0,1,Image00560.png
126,240,105,0,0,0,1,Image00562.png
126,241,107,0,0,0,1,Image00565.png
126,241,110,0,0,0,1,Image00566.png
126,239,109,0,0,0,1,Image00569.png
126,239,111,0,0,0,1,Image00573.png
126,241,108,0,0,0,1,Image00574.png
126,241,109,0,0,0,1,Image00580.png
126,241,109,0,0,0,1,Image00654.png
126,241,106,0,0,0,1,Image00659.png
126,241,109,0,0,0,1,Image00662.png
126,238,105,0,0,0,1,Image00663.png
126,241,109,0,0,0,1,Image00669.png
126,241,108,0,0,0,1,Image00672.png
126,241,109,0,0,0,1,Image00678.png
126,241,106,0,0,0,1,Image00679.png
126,241,108,0,0,0,1,Image00681.png
126,241,110,0,0,0,1,Image00686.png
126,241,106,0,0,0,1,Image00688.png
126,241,107,0,0,0,1,Image00692.png
126,238,106,0,0,0,1,Image00693.png
126,239,110,0,0,0,1,Image00695.png
126,241,107,0,0,0,1,Image00697.png
126,240,105,0,0,0,1,Image00699.png
126,241,109,0,0,0,1,Image00703.png
126,239,110,0,0,0,1,Image00782.png
126,241,108,0,0,0,1,Image00784.png
126,241,107,0,0,0,1,Image00789.png
126,238,105,0,0,0,1,Image00794.png
126,239,109,0,0,0,1,Image00795.png
126,241,109,0,0,0,1,Image00800.png
126,241,109,0,0,0,1,Image00803.png
126,241,108,0,0,0,1,Image00918.png
126,244,111,0,0,0,1,Image00925.png
126,241,107,0,0,0,1,Image00927.png
126,241,110,0,0,0,1,Image01010.png
126,241,107,0,0,0,1,Image01011.png
126,241,109,0,0,0,1,Image01016.png
126,241,107,0,0,0,1,Image01018.png
126,239,110,0,0,0,1,Image01024.png
126,238,108,0,0,0,1,Image01025.png
126,241,110,0,0,0,1,Image01028.png
126,241,109,0,0,0,1,Image01029.png
126,239,110,0,0,0,1,Image01031.png
126,241,107,0,0,0,1,Image01037.png
126,241,106,0,0,0,1,Image01042.png
126,239,109,0,0,0,1,Image01049.png
126,241,109,0,0,0,1,Image01051.png
126,241,109,0,0,0,1,Image01053.png
126,238,104,0,0,0,1,Image01099.png
126,241,107,0,0,0,1,Image01106.png
126,241,110,0,0,0,1,Image01114.png
126,241,110,0,0,0,1,Image01138.png
126,241,108,0,0,0,1,Image01145.png
126,241,108,0,0,0,1,Image01148.png
126,239,110,0,0,0,1,Image01149.png
126,239,110,0,0,0,1,Image01151.png
126,241,109,0,0,0,1,Image01155.png
126,241,109,0,0,0,1,Image01158.png
126,241,109,0,0,0,1,Image01161.png
126,241,109,0,0,0,1,Image01164.png
126,241,108,0,0,0,1,Image01166.png
126,241,110,0,0,0,1,Image01167.png
126,239,109,0,0,0,1,Image01168.png
126,238,105,0,0,0,1,Image01169.png
126,239,109,0,0,0,1,Image01171.png
126,241,109,0,0,0,1,Image01180.png
