Hue_1,Sat_1,Val_1,Image_FileName,New_lables
134,104,91,Betson_899_full.bmp,16
135,109,94,Betson_902_full.bmp,16
135,106,96,Betson_903_full.bmp,16
135,107,93,Betson_905_full.bmp,16
138,104,115,Betson_906_full.bmp,16
138,107,117,Betson_907_full.bmp,16
134,107,88,Betson_908_full.bmp,16
137,108,102,Betson_909_full.bmp,16
134,104,93,Betson_910_full.bmp,16
137,104,98,Betson_911_full.bmp,16
134,104,91,Betson_912_full.bmp,16
137,105,97,Betson_913_full.bmp,16
134,106,91,Betson_914_full.bmp,16
136,106,94,Betson_915_full.bmp,16
