Hue_1,Sat_1,Val_1,Image_FileName,New_lables
41,26,158,Advance_Crocin_advance_317_full.bmp,18
39,33,156,Advance_Crocin_advance_320_full.bmp,18
39,34,157,Advance_Crocin_advance_324_full.bmp,18
37,35,155,Advance_Crocin_advance_329_full.bmp,18
42,31,149,Advance_Crocin_advance_330_full.bmp,18
39,34,158,Advance_Crocin_advance_340_full.bmp,18
42,29,151,Advance_Crocin_advance_342_full.bmp,18
38,31,158,Advance_Crocin_advance_345_full.bmp,18
38,30,152,Advance_Crocin_advance_346_full.bmp,18
38,32,151,Advance_Crocin_advance_358_full.bmp,18
37,36,158,Advance_Crocin_advance_360_full.bmp,18
35,30,151,Advance_Crocin_advance_364_full.bmp,18
39,33,154,Advance_Crocin_advance_367_full.bmp,18
44,27,158,Advance_Crocin_crocin_452_full.bmp,18
45,26,155,Advance_Crocin_crocin_454_full.bmp,18
39,31,156,Advance_Crocin_crocin_455_full.bmp,18
39,31,158,Advance_Crocin_crocin_457_full.bmp,18
42,29,158,Advance_Crocin_crocin_462_full.bmp,18
42,27,158,Advance_Crocin_crocin_470_full.bmp,18
41,26,155,Advance_Crocin_crocin_472_full.bmp,18
39,28,157,Advance_Crocin_crocin_473_full.bmp,18
37,28,154,Advance_Crocin_crocin_474_full.bmp,18
39,32,158,Advance_Crocin_crocin_475_full.bmp,18
43,31,157,Advance_Crocin_crocin_478_full.bmp,18
43,29,157,Advance_Crocin_crocin_480_full.bmp,18
42,29,158,Advance_Crocin_crocin_482_full.bmp,18
41,31,157,Advance_Crocin_crocin_483_full.bmp,18
41,27,158,Advance_Crocin_crocin_493_full.bmp,18
44,42,158,Alsarton_395_full.bmp,18
45,39,156,Alsarton_397_full.bmp,18
45,39,156,Alsarton_402_full.bmp,18
46,36,156,Alsarton_403_full.bmp,18
46,36,157,Alsarton_413_full.bmp,18
47,38,156,Alsarton_419_full.bmp,18
44,36,156,Alsarton_423_full.bmp,18
48,33,155,Alsarton_434_full.bmp,18
50,37,158,Alsarton_438_full.bmp,18
45,36,157,Alsarton_443_full.bmp,18
44,34,156,Alsarton_453_full.bmp,18
46,36,157,Alsarton_461_full.bmp,18
47,37,157,Alsarton_478_full.bmp,18
46,38,155,Alsarton_483_full.bmp,18
51,39,158,Alsarton_485_full.bmp,18
40,41,157,Aquazide_imprint_491_full.bmp,18
41,41,154,Aquazide_imprint_496_full.bmp,18
42,38,154,Aquazide_imprint_498_full.bmp,18
43,41,157,Aquazide_imprint_500_full.bmp,18
41,40,153,Aquazide_imprint_513_full.bmp,18
46,38,153,Aquazide_imprint_515_full.bmp,18
43,35,151,Aquazide_imprint_517_full.bmp,18
40,44,156,Aquazide_imprint_522_full.bmp,18
43,38,155,Aquazide_imprint_524_full.bmp,18
44,34,150,Aquazide_imprint_529_full.bmp,18
43,39,158,Aquazide_imprint_531_full.bmp,18
44,39,155,Aquazide_imprint_533_full.bmp,18
45,43,155,Aquazide_imprint_535_full.bmp,18
42,37,153,Aquazide_imprint_548_full.bmp,18
44,38,153,Aquazide_imprint_551_full.bmp,18
40,39,156,Aquazide_imprint_562_full.bmp,18
42,37,158,Aquazide_imprint_563_full.bmp,18
44,36,156,Aquazide_imprint_566_full.bmp,18
43,41,155,Aquazide_imprint_568_full.bmp,18
43,41,155,Aquazide_imprint_570_full.bmp,18
43,41,157,Aquazide_imprint_584_full.bmp,18
43,39,155,Aquazide_imprint_586_full.bmp,18
42,39,152,Aquazide_imprint_587_full.bmp,18
42,36,156,Aquazide_imprint_588_full.bmp,18
38,42,157,Aquazide_imprint_589_full.bmp,18
38,44,156,Aquazide_imprint_591_full.bmp,18
41,34,149,Aquazide_SingleScore_597_full.bmp,18
41,40,154,Aquazide_SingleScore_598_full.bmp,18
40,44,155,Aquazide_SingleScore_600_full.bmp,18
46,39,152,Aquazide_SingleScore_603_full.bmp,18
46,37,152,Aquazide_SingleScore_605_full.bmp,18
45,37,151,Aquazide_SingleScore_607_full.bmp,18
46,33,148,Aquazide_SingleScore_623_full.bmp,18
42,34,150,Aquazide_SingleScore_624_full.bmp,18
45,33,153,Aquazide_SingleScore_625_full.bmp,18
43,31,148,Aquazide_SingleScore_626_full.bmp,18
46,29,150,Aquazide_SingleScore_627_full.bmp,18
48,31,150,Aquazide_SingleScore_629_full.bmp,18
47,32,152,Aquazide_SingleScore_631_full.bmp,18
46,37,152,Aquazide_SingleScore_633_full.bmp,18
43,34,158,Avomine_imprint_660_full.bmp,18
44,33,156,Avomine_imprint_663_full.bmp,18
44,31,158,Avomine_imprint_665_full.bmp,18
48,24,158,Avomine_imprint_688_full.bmp,18
46,27,158,Avomine_imprint_692_full.bmp,18
41,34,157,Avomine_SingleScore_791_full.bmp,18
44,36,158,Avomine_SingleScore_818_full.bmp,18
45,36,155,Daonil_imprint_1169_full.bmp,18
46,37,152,Daonil_imprint_1172_full.bmp,18
45,34,152,Daonil_imprint_1174_full.bmp,18
48,34,150,Daonil_imprint_1178_full.bmp,18
42,34,150,Daonil_imprint_1199_full.bmp,18
42,37,152,Daonil_imprint_1201_full.bmp,18
44,37,158,Daonil_imprint_1203_full.bmp,18
43,38,154,Daonil_imprint_1205_full.bmp,18
44,37,158,Daonil_imprint_1206_full.bmp,18
45,33,154,Daonil_imprint_1209_full.bmp,18
46,33,149,Daonil_imprint_1210_full.bmp,18
45,36,158,Daonil_imprint_1233_full.bmp,18
47,32,150,Daonil_SingleScore_1253_full.bmp,18
50,34,151,Daonil_SingleScore_1254_full.bmp,18
46,37,153,Daonil_SingleScore_1256_full.bmp,18
46,38,153,Daonil_SingleScore_1258_full.bmp,18
46,36,156,Daonil_SingleScore_1260_full.bmp,18
47,32,157,Daonil_SingleScore_1262_full.bmp,18
45,40,154,Daonil_SingleScore_1290_full.bmp,18
43,43,155,Daonil_SingleScore_1292_full.bmp,18
43,35,151,Dart_imprint_1301_full.bmp,18
43,35,152,Dart_imprint_1304_full.bmp,18
43,35,152,Dart_imprint_1305_full.bmp,18
41,35,151,Dart_imprint_1310_full.bmp,18
44,29,148,Dart_imprint_1311_full.bmp,18
44,32,157,Dart_imprint_1313_full.bmp,18
43,34,157,Dart_imprint_1316_full.bmp,18
46,36,157,Dart_imprint_1318_full.bmp,18
47,34,151,Dart_imprint_1319_full.bmp,18
45,34,150,Dart_imprint_1321_full.bmp,18
44,33,149,Dart_imprint_1323_full.bmp,18
45,30,151,Dart_imprint_1337_full.bmp,18
44,34,150,Dart_imprint_1339_full.bmp,18
43,35,152,Dart_imprint_1341_full.bmp,18
42,32,157,Dart_imprint_1348_full.bmp,18
45,32,158,Dart_imprint_1351_full.bmp,18
44,35,152,Dart_imprint_1352_full.bmp,18
46,37,152,Dart_imprint_1375_full.bmp,18
44,37,152,Dart_imprint_1377_full.bmp,18
41,35,152,Dart_imprint_1380_full.bmp,18
41,34,150,Dart_imprint_1385_full.bmp,18
44,37,153,Dart_imprint_1388_full.bmp,18
44,35,153,Dart_imprint_1392_full.bmp,18
45,34,152,Dart_imprint_1394_full.bmp,18
44,34,151,Dart_SingleScore_1422_full.bmp,18
43,35,151,Dart_SingleScore_1429_full.bmp,18
42,34,151,Dart_SingleScore_1440_full.bmp,18
44,37,158,Dart_SingleScore_1446_full.bmp,18
44,34,156,Dart_SingleScore_1449_full.bmp,18
44,32,152,Dart_SingleScore_1450_full.bmp,18
41,34,156,Dart_SingleScore_1452_full.bmp,18
44,38,156,Dart_SingleScore_1455_full.bmp,18
42,36,155,Dart_SingleScore_1456_full.bmp,18
41,35,151,Dart_SingleScore_1458_full.bmp,18
43,35,152,Dart_SingleScore_1460_full.bmp,18
43,35,152,Dart_SingleScore_1462_full.bmp,18
39,31,158,Defenac_P_SingleScore_1582_full.bmp,18
34,35,153,Okacet_NoScore_2546_full.bmp,18
34,34,158,Okacet_NoScore_2547_full.bmp,18
33,36,155,Okacet_NoScore_2549_full.bmp,18
30,38,156,Okacet_NoScore_2551_full.bmp,18
35,38,153,Okacet_NoScore_2555_full.bmp,18
34,39,155,Okacet_NoScore_2557_full.bmp,18
33,37,157,Okacet_NoScore_2559_full.bmp,18
37,37,152,Okacet_NoScore_2574_full.bmp,18
35,37,153,Okacet_NoScore_2577_full.bmp,18
33,37,153,Okacet_NoScore_2580_full.bmp,18
35,36,154,Okacet_NoScore_2587_full.bmp,18
35,39,157,Okacet_SingleScore_2598_full.bmp,18
34,39,155,Okacet_SingleScore_2599_full.bmp,18
33,39,158,Okacet_SingleScore_2600_full.bmp,18
31,38,155,Okacet_SingleScore_2601_full.bmp,18
34,36,158,Okacet_SingleScore_2619_full.bmp,18
35,38,156,Okacet_SingleScore_2622_full.bmp,18
35,32,157,Okamet_NoScore_2624_full.bmp,18
36,33,153,Okamet_NoScore_2628_full.bmp,18
36,33,156,Okamet_NoScore_2629_full.bmp,18
34,35,154,Okamet_NoScore_2630_full.bmp,18
36,34,156,Okamet_NoScore_2632_full.bmp,18
38,37,157,Okamet_NoScore_2635_full.bmp,18
35,39,158,Okamet_NoScore_2636_full.bmp,18
35,33,154,Okamet_NoScore_2641_full.bmp,18
38,37,157,Okamet_NoScore_2643_full.bmp,18
37,37,158,Okamet_NoScore_2650_full.bmp,18
37,35,154,Okamet_NoScore_2656_full.bmp,18
37,36,155,Okamet_NoScore_2661_full.bmp,18
36,40,158,Okamet_NoScore_2663_full.bmp,18
40,36,155,Okamet_SingleScore_2666_full.bmp,18
36,39,157,Okamet_SingleScore_2673_full.bmp,18
38,40,158,Okamet_SingleScore_2694_full.bmp,18
43,31,156,Paracetamol_NoScore_2528_full.bmp,18
45,32,158,Paracetamol_NoScore_2529_full.bmp,18
46,31,156,Paracetamol_NoScore_2536_full.bmp,18
46,28,154,Paracetamol_NoScore_2545_full.bmp,18
39,34,158,Paracetamol_SingleScore_2726_full.bmp,18
43,34,158,Paracetamol_SingleScore_2730_full.bmp,18
41,33,156,Paracetamol_SingleScore_2738_full.bmp,18
54,27,152,Teczine_NoScore_2791_full.bmp,18
51,33,156,Teczine_NoScore_2796_full.bmp,18
50,32,157,Teczine_NoScore_2797_full.bmp,18
53,30,152,Teczine_NoScore_2803_full.bmp,18
48,36,158,Teczine_SingleScore_2807_full.bmp,18
49,31,157,Teczine_SingleScore_2809_full.bmp,18
49,34,157,Teczine_SingleScore_2832_full.bmp,18
43,44,155,Theo_Asthalin_imprint_2860_full.bmp,18
44,42,156,Theo_Asthalin_imprint_2865_full.bmp,18
43,40,154,Theo_Asthalin_imprint_2867_full.bmp,18
43,42,153,Theo_Asthalin_imprint_2881_full.bmp,18
43,40,153,Theo_Asthalin_imprint_2882_full.bmp,18
44,37,150,Theo_Asthalin_imprint_2890_full.bmp,18
41,40,153,Theo_Asthalin_imprint_2902_full.bmp,18
42,41,154,Theo_Asthalin_imprint_2945_full.bmp,18
40,46,156,Theo_Asthalin_imprint_2962_full.bmp,18
46,41,155,Theo_Asthalin_SingleScore_2972_full.bmp,18
44,44,158,Theo_Asthalin_SingleScore_2975_full.bmp,18
42,42,153,Theo_Asthalin_SingleScore_3004_full.bmp,18
46,42,158,Theo_Asthalin_SingleScore_3014_full.bmp,18
