Hue_1,Sat_1,Val_1,Image_FileName,New_lables
91,108,116,Azax_852_full.bmp,2
91,105,114,Azax_854_full.bmp,2
91,106,118,Azax_856_full.bmp,2
89,103,116,Azax_858_full.bmp,2
87,102,115,Azax_860_full.bmp,2
74,98,115,Evion_LC_2151_full.bmp,2
73,95,115,Evion_LC_2153_full.bmp,2
74,98,115,Evion_LC_2154_full.bmp,2
73,98,115,Evion_LC_2155_full.bmp,2
73,98,117,Evion_LC_2159_full.bmp,2
73,98,115,Evion_LC_2161_full.bmp,2
73,99,116,Evion_LC_2162_full.bmp,2
73,98,117,Evion_LC_2163_full.bmp,2
73,98,115,Evion_LC_2164_full.bmp,2
74,100,115,Evion_LC_2165_full.bmp,2
73,95,115,Evion_LC_2166_full.bmp,2
73,96,114,Evion_LC_2167_full.bmp,2
72,97,116,Evion_LC_2169_full.bmp,2
72,94,114,Evion_LC_2171_full.bmp,2
73,95,115,Evion_LC_2173_full.bmp,2
73,93,115,Evion_LC_2175_full.bmp,2
72,98,115,Evion_LC_2177_full.bmp,2
73,95,115,Evion_LC_2179_full.bmp,2
74,93,115,Evion_LC_2181_full.bmp,2
74,92,114,Evion_LC_2183_full.bmp,2
81,117,122,Genil_Tab_NoScore_2264_full.bmp,2
82,112,118,Genil_Tab_NoScore_2293_full.bmp,2
81,113,122,Genil_Tab_NoScore_2296_full.bmp,2
81,115,120,Genil_Tab_NoScore_2297_full.bmp,2
81,113,122,Genil_Tab_NoScore_2298_full.bmp,2
80,111,119,Genil_Tab_NoScore_2299_full.bmp,2
81,114,121,Genil_Tab_SingleScore_2301_full.bmp,2
81,115,120,Genil_Tab_SingleScore_2303_full.bmp,2
80,114,119,Genil_Tab_SingleScore_2304_full.bmp,2
80,115,120,Genil_Tab_SingleScore_2305_full.bmp,2
81,115,120,Genil_Tab_SingleScore_2306_full.bmp,2
81,113,122,Genil_Tab_SingleScore_2307_full.bmp,2
81,115,120,Genil_Tab_SingleScore_2308_full.bmp,2
81,112,121,Genil_Tab_SingleScore_2309_full.bmp,2
81,114,121,Genil_Tab_SingleScore_2310_full.bmp,2
81,113,122,Genil_Tab_SingleScore_2311_full.bmp,2
81,112,121,Genil_Tab_SingleScore_2312_full.bmp,2
81,110,121,Genil_Tab_SingleScore_2314_full.bmp,2
80,108,120,Genil_Tab_SingleScore_2316_full.bmp,2
80,109,122,Genil_Tab_SingleScore_2318_full.bmp,2
80,99,116,Meftal_Forte_imprint_2340_full.bmp,2
81,99,116,Meftal_Forte_imprint_2341_full.bmp,2
81,100,115,Meftal_Forte_imprint_2342_full.bmp,2
81,99,116,Meftal_Forte_imprint_2343_full.bmp,2
82,101,116,Meftal_Forte_imprint_2344_full.bmp,2
82,103,114,Meftal_Forte_imprint_2345_full.bmp,2
82,102,117,Meftal_Forte_imprint_2346_full.bmp,2
82,105,114,Meftal_Forte_imprint_2347_full.bmp,2
82,109,117,Meftal_Forte_imprint_2348_full.bmp,2
81,103,109,Meftal_Forte_imprint_2349_full.bmp,2
81,100,117,Meftal_Forte_imprint_2350_full.bmp,2
81,102,117,Meftal_Forte_imprint_2351_full.bmp,2
82,104,110,Meftal_Forte_imprint_2352_full.bmp,2
81,102,117,Meftal_Forte_imprint_2353_full.bmp,2
82,105,114,Meftal_Forte_imprint_2354_full.bmp,2
82,106,113,Meftal_Forte_imprint_2355_full.bmp,2
81,99,116,Meftal_Forte_imprint_2357_full.bmp,2
81,98,115,Meftal_Forte_imprint_2358_full.bmp,2
80,101,116,Meftal_Forte_imprint_2359_full.bmp,2
79,100,120,Meftal_Forte_imprint_2360_full.bmp,2
80,99,118,Meftal_Forte_imprint_2361_full.bmp,2
80,97,113,Meftal_Forte_imprint_2362_full.bmp,2
80,100,112,Meftal_Forte_imprint_2363_full.bmp,2
80,99,111,Meftal_Forte_imprint_2364_full.bmp,2
80,98,114,Meftal_Forte_imprint_2365_full.bmp,2
79,98,114,Meftal_Forte_imprint_2366_full.bmp,2
80,99,116,Meftal_Forte_imprint_2367_full.bmp,2
80,101,109,Meftal_Forte_imprint_2368_full.bmp,2
80,102,112,Meftal_Forte_imprint_2369_full.bmp,2
80,101,111,Meftal_Forte_imprint_2370_full.bmp,2
80,100,110,Meftal_Forte_imprint_2371_full.bmp,2
80,100,110,Meftal_Forte_imprint_2372_full.bmp,2
80,98,120,Meftal_Forte_imprint_2373_full.bmp,2
81,95,115,Meftal_Forte_imprint_2374_full.bmp,2
80,99,119,Meftal_Forte_imprint_2375_full.bmp,2
80,99,119,Meftal_Forte_imprint_2376_full.bmp,2
80,98,115,Meftal_Forte_imprint_2377_full.bmp,2
80,96,117,Meftal_Forte_imprint_2379_full.bmp,2
80,99,116,Meftal_Forte_imprint_2380_full.bmp,2
80,98,114,Meftal_Forte_imprint_2381_full.bmp,2
79,99,116,Meftal_Forte_imprint_2382_full.bmp,2
80,101,116,Meftal_Forte_imprint_2383_full.bmp,2
79,99,116,Meftal_Forte_imprint_2384_full.bmp,2
80,98,115,Meftal_Forte_imprint_2385_full.bmp,2
80,97,116,Meftal_Forte_imprint_2386_full.bmp,2
81,100,115,Meftal_Forte_imprint_2387_full.bmp,2
80,101,116,Meftal_Forte_imprint_2388_full.bmp,2
80,101,114,Meftal_Forte_imprint_2389_full.bmp,2
80,97,116,Meftal_Forte_imprint_2390_full.bmp,2
80,95,115,Meftal_Forte_imprint_2391_full.bmp,2
80,95,116,Meftal_Forte_imprint_2393_full.bmp,2
80,95,115,Meftal_Forte_imprint_2395_full.bmp,2
80,95,115,Meftal_Forte_imprint_2397_full.bmp,2
80,102,115,Meftal_Forte_imprint_2398_full.bmp,2
81,103,114,Meftal_Forte_imprint_2399_full.bmp,2
81,99,116,Meftal_Forte_imprint_2400_full.bmp,2
80,98,114,Meftal_Forte_imprint_2401_full.bmp,2
80,97,116,Meftal_Forte_imprint_2402_full.bmp,2
80,99,116,Meftal_Forte_imprint_2403_full.bmp,2
80,95,116,Meftal_Forte_imprint_2405_full.bmp,2
80,97,116,Meftal_Forte_imprint_2407_full.bmp,2
80,102,115,Meftal_Forte_imprint_2408_full.bmp,2
81,102,113,Meftal_Forte_imprint_2409_full.bmp,2
80,95,115,Meftal_Forte_imprint_2410_full.bmp,2
80,98,115,Meftal_Forte_imprint_2411_full.bmp,2
80,99,116,Meftal_Forte_imprint_2412_full.bmp,2
80,99,116,Meftal_Forte_imprint_2413_full.bmp,2
80,94,119,Meftal_Forte_SingleScore_2415_full.bmp,2
81,94,109,Meftal_Forte_SingleScore_2416_full.bmp,2
80,94,119,Meftal_Forte_SingleScore_2418_full.bmp,2
79,96,119,Meftal_Forte_SingleScore_2419_full.bmp,2
80,95,115,Meftal_Forte_SingleScore_2420_full.bmp,2
80,99,119,Meftal_Forte_SingleScore_2421_full.bmp,2
80,100,110,Meftal_Forte_SingleScore_2422_full.bmp,2
79,99,119,Meftal_Forte_SingleScore_2423_full.bmp,2
79,97,118,Meftal_Forte_SingleScore_2424_full.bmp,2
79,96,112,Meftal_Forte_SingleScore_2425_full.bmp,2
79,97,110,Meftal_Forte_SingleScore_2426_full.bmp,2
81,95,113,Meftal_Forte_SingleScore_2427_full.bmp,2
80,96,112,Meftal_Forte_SingleScore_2428_full.bmp,2
80,94,119,Meftal_Forte_SingleScore_2429_full.bmp,2
80,94,117,Meftal_Forte_SingleScore_2430_full.bmp,2
81,94,114,Meftal_Forte_SingleScore_2432_full.bmp,2
79,94,114,Meftal_Forte_SingleScore_2434_full.bmp,2
80,98,115,Meftal_Forte_SingleScore_2436_full.bmp,2
79,100,115,Meftal_Forte_SingleScore_2437_full.bmp,2
80,98,115,Meftal_Forte_SingleScore_2438_full.bmp,2
80,98,114,Meftal_Forte_SingleScore_2439_full.bmp,2
80,95,113,Meftal_Forte_SingleScore_2440_full.bmp,2
81,95,113,Meftal_Forte_SingleScore_2441_full.bmp,2
79,94,114,Meftal_Forte_SingleScore_2442_full.bmp,2
80,94,114,Meftal_Forte_SingleScore_2443_full.bmp,2
79,95,115,Meftal_Forte_SingleScore_2444_full.bmp,2
80,98,115,Meftal_Forte_SingleScore_2445_full.bmp,2
80,98,115,Meftal_Forte_SingleScore_2446_full.bmp,2
79,98,115,Meftal_Forte_SingleScore_2447_full.bmp,2
78,91,121,Meftal_Spas_2451_full.bmp,2
79,90,119,Meftal_Spas_2452_full.bmp,2
79,89,121,Meftal_Spas_2453_full.bmp,2
79,87,120,Meftal_Spas_2454_full.bmp,2
78,88,119,Meftal_Spas_2465_full.bmp,2
79,91,120,Meftal_Spas_2466_full.bmp,2
78,91,120,Meftal_Spas_2472_full.bmp,2
78,93,121,Meftal_Spas_2477_full.bmp,2
79,91,118,Meftal_Spas_2478_full.bmp,2
79,87,117,Meftal_Spas_2479_full.bmp,2
79,85,120,Meftal_Spas_2480_full.bmp,2
