Hue_1,Sat_1,Val_1,Image_FileName,New_lables
98,151,137,Aldigestic_Ptab_316_full.bmp,22
97,150,138,Aldigestic_Ptab_320_full.bmp,22
97,150,138,Aldigestic_Ptab_321_full.bmp,22
97,152,134,Aldigestic_Ptab_343_full.bmp,22
97,151,135,Aldigestic_Ptab_345_full.bmp,22
97,151,135,Aldigestic_Ptab_346_full.bmp,22
98,149,135,Aldigestic_Ptab_359_full.bmp,22
98,149,135,Aldigestic_Ptab_360_full.bmp,22
