Hue_1,Sat_1,Val_1,Image_FileName,New_lables
131,54,114,Digene_imprint_1600_full.bmp,25
132,51,114,Digene_imprint_1602_full.bmp,25
130,51,115,Digene_imprint_1605_full.bmp,25
133,52,118,Digene_imprint_1606_full.bmp,25
131,54,118,Digene_imprint_1607_full.bmp,25
132,50,118,Digene_imprint_1608_full.bmp,25
132,50,118,Digene_imprint_1611_full.bmp,25
133,52,117,Digene_imprint_1613_full.bmp,25
133,52,112,Digene_imprint_1617_full.bmp,25
133,56,110,Digene_imprint_1618_full.bmp,25
131,54,119,Digene_imprint_1620_full.bmp,25
131,56,113,Digene_imprint_1621_full.bmp,25
131,49,115,Digene_imprint_1622_full.bmp,25
130,55,112,Digene_imprint_1623_full.bmp,25
131,51,110,Digene_imprint_1624_full.bmp,25
131,51,110,Digene_imprint_1628_full.bmp,25
133,47,113,Digene_imprint_1638_full.bmp,25
133,50,118,Digene_imprint_1640_full.bmp,25
135,49,114,Digene_imprint_1641_full.bmp,25
132,48,117,Digene_imprint_1642_full.bmp,25
133,47,113,Digene_imprint_1643_full.bmp,25
132,46,110,Digene_imprint_1644_full.bmp,25
131,48,118,Digene_imprint_1645_full.bmp,25
134,49,119,Digene_imprint_1647_full.bmp,25
133,50,117,Digene_imprint_1659_full.bmp,25
136,49,110,Digene_imprint_1661_full.bmp,25
136,51,114,Digene_imprint_1663_full.bmp,25
132,49,115,Digene_imprint_1664_full.bmp,25
134,49,110,Digene_imprint_1666_full.bmp,25
132,51,115,Digene_imprint_1667_full.bmp,25
132,49,114,Digene_imprint_1668_full.bmp,25
133,48,111,Digene_imprint_1671_full.bmp,25
133,48,111,Digene_imprint_1672_full.bmp,25
132,52,112,Digene_imprint_1674_full.bmp,25
134,51,111,Digene_imprint_1675_full.bmp,25
132,49,115,Digene_imprint_1676_full.bmp,25
132,49,115,Digene_imprint_1678_full.bmp,25
134,48,111,Digene_imprint_1679_full.bmp,25
135,48,117,Digene_imprint_1681_full.bmp,25
135,48,118,Digene_imprint_1683_full.bmp,25
134,50,118,Digene_imprint_1687_full.bmp,25
132,48,118,Digene_imprint_1692_full.bmp,25
134,47,113,Digene_imprint_1693_full.bmp,25
132,50,118,Digene_imprint_1694_full.bmp,25
133,50,117,Digene_imprint_1695_full.bmp,25
136,52,113,Digene_imprint_1697_full.bmp,25
133,49,110,Digene_imprint_1698_full.bmp,25
132,46,111,Digene_imprint_1702_full.bmp,25
131,49,110,Digene_imprint_1706_full.bmp,25
132,49,114,Digene_imprint_1708_full.bmp,25
133,49,110,Digene_imprint_1715_full.bmp,25
132,48,116,Digene_imprint_1717_full.bmp,25
132,48,118,Digene_imprint_1725_full.bmp,25
134,48,116,Digene_imprint_1726_full.bmp,25
134,52,118,Digene_imprint_1727_full.bmp,25
134,51,116,Digene_imprint_1728_full.bmp,25
133,51,115,Digene_imprint_1729_full.bmp,25
134,51,111,Digene_imprint_1730_full.bmp,25
133,48,112,Digene_imprint_1731_full.bmp,25
134,46,110,Digene_imprint_1733_full.bmp,25
134,50,118,Digene_NoScore_1741_full.bmp,25
130,48,117,Digene_NoScore_1745_full.bmp,25
130,48,117,Digene_NoScore_1746_full.bmp,25
129,46,111,Digene_NoScore_1748_full.bmp,25
130,48,116,Digene_NoScore_1751_full.bmp,25
131,48,116,Digene_NoScore_1752_full.bmp,25
133,65,113,Gelusil_MPS_2191_full.bmp,25
134,64,112,Gelusil_MPS_2193_full.bmp,25
134,63,114,Gelusil_MPS_2195_full.bmp,25
134,64,115,Gelusil_MPS_2198_full.bmp,25
134,63,113,Gelusil_MPS_2200_full.bmp,25
133,65,118,Gelusil_MPS_2203_full.bmp,25
133,64,116,Gelusil_MPS_2204_full.bmp,25
133,64,112,Gelusil_MPS_2205_full.bmp,25
132,64,115,Gelusil_MPS_2206_full.bmp,25
133,64,112,Gelusil_MPS_2207_full.bmp,25
132,66,116,Gelusil_MPS_2208_full.bmp,25
133,64,116,Gelusil_MPS_2224_full.bmp,25
132,65,113,Gelusil_MPS_2242_full.bmp,25
