Hue_1,Sat_1,Val_1,Image_FileName,New_lables
98,151,137,Aldigestic_Ptab_316_full.bmp,28
97,154,106,Aldigestic_Ptab_319_full.bmp,28
97,150,138,Aldigestic_Ptab_320_full.bmp,28
97,150,138,Aldigestic_Ptab_321_full.bmp,28
96,154,103,Aldigestic_Ptab_322_full.bmp,28
96,154,98,Aldigestic_Ptab_340_full.bmp,28
96,153,108,Aldigestic_Ptab_342_full.bmp,28
97,152,134,Aldigestic_Ptab_343_full.bmp,28
96,154,101,Aldigestic_Ptab_344_full.bmp,28
97,151,135,Aldigestic_Ptab_345_full.bmp,28
97,151,135,Aldigestic_Ptab_346_full.bmp,28
97,153,108,Aldigestic_Ptab_349_full.bmp,28
96,153,102,Aldigestic_Ptab_351_full.bmp,28
96,151,103,Aldigestic_Ptab_352_full.bmp,28
96,152,104,Aldigestic_Ptab_354_full.bmp,28
98,149,135,Aldigestic_Ptab_359_full.bmp,28
98,149,135,Aldigestic_Ptab_360_full.bmp,28
96,154,106,Aldigestic_Ptab_361_full.bmp,28
97,154,106,Aldigestic_Ptab_368_full.bmp,28
96,153,110,Aldigestic_Ptab_370_full.bmp,28
97,152,104,Aldigestic_Ptab_371_full.bmp,28
97,151,108,Aldigestic_Ptab_376_full.bmp,28
97,153,107,Aldigestic_Ptab_377_full.bmp,28
97,150,102,Aldigestic_Ptab_378_full.bmp,28
