Hue_1,Sat_1,Val_1,Hue_2,Sat_2,Val_2,Color ID,Image_FileName,New_lables
104,193,115,0,0,0,7,Image00408.png,11
104,187,147,0,0,0,7,Image00409.png,11
104,188,145,0,0,0,7,Image00410.png,11
104,189,146,0,0,0,7,Image00411.png,11
104,188,145,0,0,0,7,Image00412.png,11
104,188,149,0,0,0,7,Image00413.png,11
104,196,116,0,0,0,7,Image00414.png,11
103,188,145,0,0,0,7,Image00415.png,11
104,195,115,0,0,0,7,Image00416.png,11
104,189,147,0,0,0,7,Image00417.png,11
104,195,114,0,0,0,7,Image00418.png,11
104,196,116,0,0,0,7,Image00419.png,11
104,193,115,0,0,0,7,Image00420.png,11
104,193,115,0,0,0,7,Image00421.png,11
104,193,115,0,0,0,7,Image00422.png,11
104,193,115,0,0,0,7,Image00423.png,11
104,189,146,0,0,0,7,Image00424.png,11
104,189,147,0,0,0,7,Image00425.png,11
104,189,146,0,0,0,7,Image00426.png,11
104,192,117,0,0,0,7,Image00427.png,11
105,198,89,0,0,0,7,Image00428.png,11
104,196,116,0,0,0,7,Image00429.png,11
104,195,114,0,0,0,7,Image00430.png,11
104,188,149,0,0,0,7,Image00431.png,11
104,196,116,0,0,0,7,Image00432.png,11
104,195,115,0,0,0,7,Image00433.png,11
104,190,146,0,0,0,7,Image00434.png,11
104,189,147,0,0,0,7,Image00435.png,11
104,197,118,0,0,0,7,Image00436.png,11
104,187,149,0,0,0,7,Image00437.png,11
104,186,145,0,0,0,7,Image00438.png,11
104,187,146,0,0,0,7,Image00439.png,11
104,191,116,0,0,0,7,Image00440.png,11
104,186,147,0,0,0,7,Image00441.png,11
104,191,116,0,0,0,7,Image00442.png,11
104,188,145,0,0,0,7,Image00443.png,11
104,190,145,0,0,0,7,Image00444.png,11
104,189,146,0,0,0,7,Image00445.png,11
104,195,114,0,0,0,7,Image00446.png,11
104,189,147,0,0,0,7,Image00447.png,11
104,186,145,0,0,0,7,Image00448.png,11
104,193,116,0,0,0,7,Image00449.png,11
104,193,115,0,0,0,7,Image00450.png,11
104,187,147,0,0,0,7,Image00451.png,11
104,193,115,0,0,0,7,Image00452.png,11
106,196,82,0,0,0,7,Image00453.png,11
104,196,117,0,0,0,7,Image00454.png,11
104,195,115,0,0,0,7,Image00455.png,11
104,196,117,0,0,0,7,Image00456.png,11
104,195,114,0,0,0,7,Image00457.png,11
104,190,148,0,0,0,7,Image00458.png,11
104,195,115,0,0,0,7,Image00459.png,11
104,192,114,0,0,0,7,Image00460.png,11
104,194,117,0,0,0,7,Image00461.png,11
104,195,115,0,0,0,7,Image00462.png,11
104,195,114,0,0,0,7,Image00463.png,11
104,194,113,0,0,0,7,Image00464.png,11
104,195,114,0,0,0,7,Image00465.png,11
104,194,113,0,0,0,7,Image00466.png,11
104,193,116,0,0,0,7,Image00467.png,11
104,197,115,0,0,0,7,Image00468.png,11
104,194,113,0,0,0,7,Image00469.png,11
104,195,115,0,0,0,7,Image00470.png,11
104,195,114,0,0,0,7,Image00471.png,11
104,196,117,0,0,0,7,Image00472.png,11
104,194,112,0,0,0,7,Image00473.png,11
104,195,114,0,0,0,7,Image00474.png,11
104,193,115,0,0,0,7,Image00475.png,11
104,192,114,0,0,0,7,Image00476.png,11
104,193,115,0,0,0,7,Image00477.png,11
103,186,144,0,0,0,7,Image00478.png,11
104,187,147,0,0,0,7,Image00479.png,11
104,186,147,0,0,0,7,Image00480.png,11
104,187,147,0,0,0,7,Image00481.png,11
104,188,145,0,0,0,7,Image00482.png,11
104,187,147,0,0,0,7,Image00483.png,11
104,187,147,0,0,0,7,Image00484.png,11
104,195,115,0,0,0,7,Image00485.png,11
104,195,115,0,0,0,7,Image00486.png,11
104,195,114,0,0,0,7,Image00487.png,11
104,196,116,0,0,0,7,Image00488.png,11
104,187,147,0,0,0,7,Image00489.png,11
104,193,116,0,0,0,7,Image00490.png,11
105,197,84,0,0,0,7,Image00491.png,11
105,197,84,0,0,0,7,Image00492.png,11
104,193,116,0,0,0,7,Image00493.png,11
104,187,147,0,0,0,7,Image00494.png,11
104,187,147,0,0,0,7,Image00495.png,11
104,189,146,0,0,0,7,Image00496.png,11
104,189,147,0,0,0,7,Image00497.png,11
104,188,149,0,0,0,7,Image00498.png,11
104,189,146,0,0,0,7,Image00499.png,11
104,193,116,0,0,0,7,Image00500.png,11
104,197,118,0,0,0,7,Image00501.png,11
104,188,148,0,0,0,7,Image00502.png,11
104,190,146,0,0,0,7,Image00503.png,11
104,195,115,0,0,0,7,Image00504.png,11
104,193,115,0,0,0,7,Image00505.png,11
104,187,146,0,0,0,7,Image00506.png,11
104,189,146,0,0,0,7,Image00507.png,11
104,193,116,0,0,0,7,Image00508.png,11
104,188,148,0,0,0,7,Image00509.png,11
104,193,116,0,0,0,7,Image00510.png,11
104,195,115,0,0,0,7,Image00511.png,11
104,186,145,0,0,0,7,Image00512.png,11
104,186,148,0,0,0,7,Image00513.png,11
104,193,116,0,0,0,7,Image00514.png,11
104,192,117,0,0,0,7,Image00515.png,11
104,188,148,0,0,0,7,Image00516.png,11
103,190,146,0,0,0,7,Image00517.png,11
105,199,82,0,0,0,7,Image00518.png,11
104,190,148,0,0,0,7,Image00519.png,11
103,190,145,0,0,0,7,Image00520.png,11
104,195,119,0,0,0,7,Image00521.png,11
104,193,116,0,0,0,7,Image00522.png,11
104,193,116,0,0,0,7,Image00523.png,11
104,189,146,0,0,0,7,Image00524.png,11
104,189,146,0,0,0,7,Image00525.png,11
104,188,145,0,0,0,7,Image00526.png,11
104,190,145,0,0,0,7,Image00527.png,11
104,195,118,0,0,0,7,Image00528.png,11
104,190,148,0,0,0,7,Image00529.png,11
104,194,117,0,0,0,7,Image00530.png,11
104,195,115,0,0,0,7,Image00531.png,11
104,195,115,0,0,0,7,Image00532.png,11
104,193,115,0,0,0,7,Image00533.png,11
104,193,115,0,0,0,7,Image00534.png,11
104,193,115,0,0,0,7,Image00535.png,11
104,188,148,0,0,0,7,Image00536.png,11
104,193,116,0,0,0,7,Image00537.png,11
104,189,146,0,0,0,7,Image00538.png,11
104,193,116,0,0,0,7,Image00539.png,11
104,194,117,0,0,0,7,Image00540.png,11
103,188,145,0,0,0,7,Image00541.png,11
104,195,115,0,0,0,7,Image00542.png,11
104,190,148,0,0,0,7,Image00543.png,11
104,195,115,0,0,0,7,Image00544.png,11
104,195,115,0,0,0,7,Image00545.png,11
105,197,84,0,0,0,7,Image00546.png,11
104,195,115,0,0,0,7,Image00547.png,11
104,193,115,0,0,0,7,Image00548.png,11
104,192,114,0,0,0,7,Image00549.png,11
104,193,115,0,0,0,7,Image00550.png,11
104,193,115,0,0,0,7,Image00551.png,11
104,193,116,0,0,0,7,Image00552.png,11
104,191,116,0,0,0,7,Image00553.png,11
104,190,145,0,0,0,7,Image00554.png,11
104,190,145,0,0,0,7,Image00555.png,11
104,190,148,0,0,0,7,Image00556.png,11
104,190,146,0,0,0,7,Image00557.png,11
104,193,116,0,0,0,7,Image00558.png,11
104,193,116,0,0,0,7,Image00559.png,11
104,194,112,0,0,0,7,Image00560.png,11
104,196,116,0,0,0,7,Image00561.png,11
105,195,89,0,0,0,7,Image00562.png,11
104,193,116,0,0,0,7,Image00563.png,11
104,195,115,0,0,0,7,Image00564.png,11
104,193,115,0,0,0,7,Image00565.png,11
104,186,145,0,0,0,7,Image00566.png,11
104,192,117,0,0,0,7,Image00567.png,11
104,188,145,0,0,0,7,Image00568.png,11
104,191,116,0,0,0,7,Image00569.png,11
103,188,145,0,0,0,7,Image00570.png,11
104,189,147,0,0,0,7,Image00571.png,11
104,194,117,0,0,0,7,Image00572.png,11
104,191,147,0,0,0,7,Image00573.png,11
104,193,116,0,0,0,7,Image00574.png,11
104,195,114,0,0,0,7,Image00575.png,11
104,195,115,0,0,0,7,Image00576.png,11
104,196,117,0,0,0,7,Image00577.png,11
104,195,115,0,0,0,7,Image00578.png,11
104,196,116,0,0,0,7,Image00579.png,11
105,194,84,0,0,0,7,Image00580.png,11
104,193,116,0,0,0,7,Image00581.png,11
104,192,117,0,0,0,7,Image00582.png,11
104,186,148,0,0,0,7,Image00583.png,11
104,193,119,0,0,0,7,Image00584.png,11
104,189,146,0,0,0,7,Image00585.png,11
104,192,117,0,0,0,7,Image00586.png,11
104,191,116,0,0,0,7,Image00587.png,11
104,188,148,0,0,0,7,Image00588.png,11
104,189,146,0,0,0,7,Image00589.png,11
104,189,147,0,0,0,7,Image00590.png,11
104,189,147,0,0,0,7,Image00591.png,11
105,200,83,0,0,0,7,Image00592.png,11
104,196,117,0,0,0,7,Image00593.png,11
104,194,113,0,0,0,7,Image00594.png,11
104,196,116,0,0,0,7,Image00595.png,11
104,188,149,0,0,0,7,Image00596.png,11
104,193,116,0,0,0,7,Image00597.png,11
104,188,149,0,0,0,7,Image00598.png,11
104,195,115,0,0,0,7,Image00599.png,11
104,189,146,0,0,0,7,Image00600.png,11
104,189,147,0,0,0,7,Image00601.png,11
104,196,117,0,0,0,7,Image00602.png,11
104,196,116,0,0,0,7,Image00603.png,11
104,198,116,0,0,0,7,Image00604.png,11
104,187,147,0,0,0,7,Image00605.png,11
104,195,115,0,0,0,7,Image00606.png,11
105,196,82,0,0,0,7,Image00607.png,11
104,196,116,0,0,0,7,Image00608.png,11
104,196,117,0,0,0,7,Image00609.png,11
104,196,117,0,0,0,7,Image00610.png,11
104,196,113,0,0,0,7,Image00611.png,11
104,196,112,0,0,0,7,Image00612.png,11
104,190,150,0,0,0,7,Image00794.png,11
104,191,148,0,0,0,7,Image00795.png,11
104,190,150,0,0,0,7,Image00796.png,11
104,191,147,0,0,0,7,Image00797.png,11
104,191,147,0,0,0,7,Image00798.png,11
104,190,149,0,0,0,7,Image00799.png,11
104,191,148,0,0,0,7,Image00800.png,11
104,189,151,0,0,0,7,Image00801.png,11
104,189,151,0,0,0,7,Image00802.png,11
104,189,151,0,0,0,7,Image00803.png,11
104,188,152,0,0,0,7,Image00804.png,11
104,189,151,0,0,0,7,Image00805.png,11
104,190,149,0,0,0,7,Image00806.png,11
104,189,151,0,0,0,7,Image00807.png,11
104,190,149,0,0,0,7,Image00808.png,11
104,192,145,0,0,0,7,Image00809.png,11
104,192,146,0,0,0,7,Image00810.png,11
104,191,147,0,0,0,7,Image00811.png,11
104,193,147,0,0,0,7,Image00812.png,11
104,189,150,0,0,0,7,Image00813.png,11
104,189,147,0,0,0,7,Image00814.png,11
104,190,149,0,0,0,7,Image00815.png,11
104,188,149,0,0,0,7,Image00816.png,11
104,190,150,0,0,0,7,Image00817.png,11
104,191,148,0,0,0,7,Image00818.png,11
104,190,150,0,0,0,7,Image00819.png,11
104,192,146,0,0,0,7,Image00820.png,11
104,193,147,0,0,0,7,Image00821.png,11
104,191,147,0,0,0,7,Image00822.png,11
104,190,148,0,0,0,7,Image00823.png,11
104,190,149,0,0,0,7,Image00824.png,11
104,190,148,0,0,0,7,Image00825.png,11
104,190,150,0,0,0,7,Image00826.png,11
104,190,148,0,0,0,7,Image00827.png,11
104,189,151,0,0,0,7,Image00828.png,11
104,189,151,0,0,0,7,Image00829.png,11
104,189,151,0,0,0,7,Image00830.png,11
104,189,151,0,0,0,7,Image00831.png,11
104,189,151,0,0,0,7,Image00832.png,11
104,191,147,0,0,0,7,Image00833.png,11
104,190,146,0,0,0,7,Image00834.png,11
104,190,148,0,0,0,7,Image00835.png,11
104,191,147,0,0,0,7,Image00836.png,11
104,190,149,0,0,0,7,Image00837.png,11
104,189,147,0,0,0,7,Image00838.png,11
104,189,147,0,0,0,7,Image00839.png,11
104,189,146,0,0,0,7,Image00840.png,11
104,189,147,0,0,0,7,Image00841.png,11
104,189,147,0,0,0,7,Image00842.png,11
104,189,151,0,0,0,7,Image00843.png,11
104,189,150,0,0,0,7,Image00844.png,11
104,189,150,0,0,0,7,Image00845.png,11
104,189,151,0,0,0,7,Image00846.png,11
104,190,152,0,0,0,7,Image00847.png,11
104,189,150,0,0,0,7,Image00848.png,11
104,189,151,0,0,0,7,Image00849.png,11
104,192,150,0,0,0,7,Image00850.png,11
104,192,150,0,0,0,7,Image00851.png,11
104,192,150,0,0,0,7,Image00852.png,11
104,192,150,0,0,0,7,Image00853.png,11
104,193,148,0,0,0,7,Image00854.png,11
104,191,148,0,0,0,7,Image00855.png,11
104,191,147,0,0,0,7,Image00856.png,11
104,190,146,0,0,0,7,Image00857.png,11
104,193,147,0,0,0,7,Image00858.png,11
104,192,146,0,0,0,7,Image00859.png,11
104,190,149,0,0,0,7,Image00860.png,11
104,189,150,0,0,0,7,Image00861.png,11
104,189,151,0,0,0,7,Image00862.png,11
104,189,150,0,0,0,7,Image00863.png,11
104,189,150,0,0,0,7,Image00864.png,11
104,190,149,0,0,0,7,Image00865.png,11
104,190,152,0,0,0,7,Image00866.png,11
104,190,149,0,0,0,7,Image00867.png,11
104,190,149,0,0,0,7,Image00868.png,11
104,191,147,0,0,0,7,Image00869.png,11
104,193,147,0,0,0,7,Image00870.png,11
104,191,147,0,0,0,7,Image00871.png,11
104,192,146,0,0,0,7,Image00872.png,11
104,193,147,0,0,0,7,Image00873.png,11
104,191,148,0,0,0,7,Image00874.png,11
104,190,148,0,0,0,7,Image00875.png,11
104,190,150,0,0,0,7,Image00876.png,11
104,191,147,0,0,0,7,Image00877.png,11
104,190,149,0,0,0,7,Image00878.png,11
104,191,147,0,0,0,7,Image00879.png,11
104,190,150,0,0,0,7,Image00880.png,11
104,190,152,0,0,0,7,Image00881.png,11
104,189,151,0,0,0,7,Image00882.png,11
104,189,150,0,0,0,7,Image00883.png,11
104,193,148,0,0,0,7,Image00884.png,11
104,192,146,0,0,0,7,Image00885.png,11
104,192,146,0,0,0,7,Image00886.png,11
104,193,147,0,0,0,7,Image00887.png,11
104,193,148,0,0,0,7,Image00888.png,11
104,191,147,0,0,0,7,Image00889.png,11
104,192,145,0,0,0,7,Image00890.png,11
104,191,148,0,0,0,7,Image00891.png,11
104,191,147,0,0,0,7,Image00892.png,11
104,190,150,0,0,0,7,Image00893.png,11
104,190,149,0,0,0,7,Image00894.png,11
104,190,150,0,0,0,7,Image00895.png,11
104,189,151,0,0,0,7,Image00896.png,11
104,189,151,0,0,0,7,Image00897.png,11
104,190,150,0,0,0,7,Image00898.png,11
104,190,149,0,0,0,7,Image00899.png,11
104,191,148,0,0,0,7,Image00900.png,11
104,191,148,0,0,0,7,Image00901.png,11
104,191,148,0,0,0,7,Image00902.png,11
104,190,149,0,0,0,7,Image00903.png,11
104,191,147,0,0,0,7,Image00904.png,11
104,189,150,0,0,0,7,Image00905.png,11
104,188,152,0,0,0,7,Image00906.png,11
104,189,150,0,0,0,7,Image00907.png,11
104,189,150,0,0,0,7,Image00908.png,11
104,188,149,0,0,0,7,Image00909.png,11
104,189,151,0,0,0,7,Image00910.png,11
104,190,149,0,0,0,7,Image00911.png,11
104,190,150,0,0,0,7,Image00912.png,11
104,193,147,0,0,0,7,Image00913.png,11
104,193,147,0,0,0,7,Image00914.png,11
104,192,146,0,0,0,7,Image00915.png,11
104,191,147,0,0,0,7,Image00916.png,11
104,192,145,0,0,0,7,Image00917.png,11
104,191,147,0,0,0,7,Image00918.png,11
104,191,147,0,0,0,7,Image00919.png,11
104,191,147,0,0,0,7,Image00920.png,11
104,191,147,0,0,0,7,Image00921.png,11
104,190,149,0,0,0,7,Image00922.png,11
104,189,147,0,0,0,7,Image00923.png,11
104,190,148,0,0,0,7,Image00924.png,11
104,190,146,0,0,0,7,Image00925.png,11
104,190,149,0,0,0,7,Image00926.png,11
104,191,148,0,0,0,7,Image00927.png,11
104,189,151,0,0,0,7,Image00928.png,11
104,189,151,0,0,0,7,Image00929.png,11
104,189,151,0,0,0,7,Image00930.png,11
104,193,149,0,0,0,7,Image00931.png,11
104,193,149,0,0,0,7,Image00932.png,11
104,192,146,0,0,0,7,Image00933.png,11
104,192,149,0,0,0,7,Image00934.png,11
104,193,147,0,0,0,7,Image00935.png,11
104,191,148,0,0,0,7,Image00936.png,11
104,190,146,0,0,0,7,Image00937.png,11
104,191,147,0,0,0,7,Image00938.png,11
104,191,148,0,0,0,7,Image00939.png,11
104,192,149,0,0,0,7,Image00940.png,11
104,191,147,0,0,0,7,Image00941.png,11
104,191,147,0,0,0,7,Image00942.png,11
104,191,148,0,0,0,7,Image00943.png,11
104,191,148,0,0,0,7,Image00944.png,11
104,191,148,0,0,0,7,Image00945.png,11
104,190,150,0,0,0,7,Image00946.png,11
104,193,147,0,0,0,7,Image00947.png,11
104,190,146,0,0,0,7,Image00948.png,11
104,191,147,0,0,0,7,Image00949.png,11
104,190,146,0,0,0,7,Image00950.png,11
104,189,150,0,0,0,7,Image00951.png,11
104,188,149,0,0,0,7,Image00952.png,11
104,190,150,0,0,0,7,Image00953.png,11
104,190,149,0,0,0,7,Image00954.png,11
104,191,148,0,0,0,7,Image00955.png,11
104,190,150,0,0,0,7,Image00956.png,11
104,190,150,0,0,0,7,Image00957.png,11
104,190,146,0,0,0,7,Image00958.png,11
104,192,146,0,0,0,7,Image00959.png,11
104,193,147,0,0,0,7,Image00960.png,11
104,191,147,0,0,0,7,Image00961.png,11
104,190,146,0,0,0,7,Image00962.png,11
104,191,148,0,0,0,7,Image00963.png,11
104,191,147,0,0,0,7,Image00964.png,11
104,190,148,0,0,0,7,Image00965.png,11
104,190,150,0,0,0,7,Image00966.png,11
104,190,152,0,0,0,7,Image00967.png,11
104,190,150,0,0,0,7,Image00968.png,11
104,189,151,0,0,0,7,Image00969.png,11
104,193,147,0,0,0,7,Image00970.png,11
104,193,147,0,0,0,7,Image00971.png,11
104,192,146,0,0,0,7,Image00972.png,11
104,191,148,0,0,0,7,Image00973.png,11
104,193,147,0,0,0,7,Image00974.png,11
104,191,147,0,0,0,7,Image00975.png,11
104,191,147,0,0,0,7,Image00976.png,11
104,191,147,0,0,0,7,Image00977.png,11
104,189,151,0,0,0,7,Image00978.png,11
104,191,148,0,0,0,7,Image00979.png,11
104,191,148,0,0,0,7,Image00980.png,11
104,189,151,0,0,0,7,Image00981.png,11
104,191,151,0,0,0,7,Image00982.png,11
104,189,151,0,0,0,7,Image00983.png,11
104,189,151,0,0,0,7,Image00984.png,11
104,190,148,0,0,0,7,Image00985.png,11
104,190,149,0,0,0,7,Image00986.png,11
104,192,149,0,0,0,7,Image00987.png,11
104,193,147,0,0,0,7,Image00988.png,11
104,192,149,0,0,0,7,Image00989.png,11
104,191,148,0,0,0,7,Image00990.png,11
104,191,147,0,0,0,7,Image00991.png,11
104,191,147,0,0,0,7,Image00992.png,11
104,190,149,0,0,0,7,Image00993.png,11
104,189,151,0,0,0,7,Image00994.png,11
104,190,149,0,0,0,7,Image00995.png,11
104,190,149,0,0,0,7,Image00996.png,11
104,192,149,0,0,0,7,Image00997.png,11
104,190,150,0,0,0,7,Image00998.png,11
104,190,150,0,0,0,7,Image00999.png,11
104,191,147,0,0,0,7,Image01000.png,11
104,190,146,0,0,0,7,Image01001.png,11
104,189,147,0,0,0,7,Image01002.png,11
104,189,147,0,0,0,7,Image01003.png,11
104,190,148,0,0,0,7,Image01004.png,11
104,190,148,0,0,0,7,Image01005.png,11
