Hue_1,Sat_1,Val_1,Hue_2,Sat_2,Val_2,Color ID,Image_FileName,New_lables
132,103,121,0,0,0,3,Image00482.png,12
132,103,121,0,0,0,3,Image00483.png,12
133,103,121,0,0,0,3,Image00484.png,12
133,103,121,0,0,0,3,Image00485.png,12
133,103,121,0,0,0,3,Image00486.png,12
133,105,117,0,0,0,3,Image00487.png,12
133,107,117,0,0,0,3,Image00488.png,12
133,107,117,0,0,0,3,Image00489.png,12
133,107,117,0,0,0,3,Image00490.png,12
132,106,118,0,0,0,3,Image00491.png,12
134,104,118,0,0,0,3,Image00492.png,12
134,104,118,0,0,0,3,Image00493.png,12
134,104,118,0,0,0,3,Image00494.png,12
134,106,118,0,0,0,3,Image00495.png,12
134,104,118,0,0,0,3,Image00496.png,12
132,106,118,0,0,0,3,Image00497.png,12
132,106,118,0,0,0,3,Image00498.png,12
133,106,118,0,0,0,3,Image00499.png,12
132,106,118,0,0,0,3,Image00500.png,12
133,106,118,0,0,0,3,Image00501.png,12
133,106,118,0,0,0,3,Image00502.png,12
133,106,118,0,0,0,3,Image00503.png,12
133,103,121,0,0,0,3,Image00504.png,12
132,105,119,0,0,0,3,Image00505.png,12
132,105,119,0,0,0,3,Image00506.png,12
132,105,119,0,0,0,3,Image00507.png,12
132,105,119,0,0,0,3,Image00508.png,12
132,105,119,0,0,0,3,Image00509.png,12
133,106,118,0,0,0,3,Image00510.png,12
134,103,121,0,0,0,3,Image00511.png,12
134,103,121,0,0,0,3,Image00512.png,12
134,103,121,0,0,0,3,Image00513.png,12
134,103,121,0,0,0,3,Image00514.png,12
134,102,120,0,0,0,3,Image00515.png,12
134,103,121,0,0,0,3,Image00516.png,12
134,103,121,0,0,0,3,Image00517.png,12
132,104,120,0,0,0,3,Image00518.png,12
132,104,120,0,0,0,3,Image00519.png,12
133,105,117,0,0,0,3,Image00520.png,12
133,107,117,0,0,0,3,Image00521.png,12
133,107,117,0,0,0,3,Image00522.png,12
133,105,117,0,0,0,3,Image00523.png,12
133,107,117,0,0,0,3,Image00524.png,12
134,102,120,0,0,0,3,Image00525.png,12
134,102,120,0,0,0,3,Image00526.png,12
134,104,120,0,0,0,3,Image00527.png,12
134,104,120,0,0,0,3,Image00528.png,12
134,102,120,0,0,0,3,Image00529.png,12
133,106,116,0,0,0,3,Image00530.png,12
133,106,116,0,0,0,3,Image00531.png,12
134,103,119,0,0,0,3,Image00532.png,12
134,103,119,0,0,0,3,Image00533.png,12
134,103,119,0,0,0,3,Image00534.png,12
134,104,120,0,0,0,3,Image00535.png,12
134,103,119,0,0,0,3,Image00536.png,12
134,103,119,0,0,0,3,Image00537.png,12
134,103,119,0,0,0,3,Image00538.png,12
133,104,120,0,0,0,3,Image00539.png,12
133,104,120,0,0,0,3,Image00540.png,12
133,104,120,0,0,0,3,Image00541.png,12
133,105,121,0,0,0,3,Image00542.png,12
133,104,120,0,0,0,3,Image00543.png,12
133,104,120,0,0,0,3,Image00544.png,12
133,105,117,0,0,0,3,Image00545.png,12
132,107,117,0,0,0,3,Image00546.png,12
133,107,117,0,0,0,3,Image00547.png,12
133,105,117,0,0,0,3,Image00548.png,12
134,105,119,0,0,0,3,Image00549.png,12
134,105,119,0,0,0,3,Image00550.png,12
134,104,118,0,0,0,3,Image00551.png,12
134,105,119,0,0,0,3,Image00552.png,12
134,105,119,0,0,0,3,Image00553.png,12
133,105,117,0,0,0,3,Image00554.png,12
133,105,117,0,0,0,3,Image00555.png,12
133,105,117,0,0,0,3,Image00556.png,12
133,105,117,0,0,0,3,Image00557.png,12
133,103,121,0,0,0,3,Image00558.png,12
132,106,118,0,0,0,3,Image00559.png,12
132,106,118,0,0,0,3,Image00560.png,12
132,106,118,0,0,0,3,Image00561.png,12
132,106,118,0,0,0,3,Image00562.png,12
132,106,118,0,0,0,3,Image00563.png,12
133,103,121,0,0,0,3,Image00564.png,12
133,103,121,0,0,0,3,Image00565.png,12
133,103,121,0,0,0,3,Image00566.png,12
133,103,121,0,0,0,3,Image00567.png,12
133,103,121,0,0,0,3,Image00568.png,12
132,105,119,0,0,0,3,Image00569.png,12
132,105,119,0,0,0,3,Image00570.png,12
132,105,119,0,0,0,3,Image00571.png,12
132,105,119,0,0,0,3,Image00572.png,12
132,105,119,0,0,0,3,Image00573.png,12
132,105,119,0,0,0,3,Image00574.png,12
133,106,118,0,0,0,3,Image00575.png,12
133,106,118,0,0,0,3,Image00576.png,12
133,106,118,0,0,0,3,Image00577.png,12
133,106,118,0,0,0,3,Image00578.png,12
133,106,118,0,0,0,3,Image00579.png,12
133,106,118,0,0,0,3,Image00580.png,12
133,106,118,0,0,0,3,Image00581.png,12
133,106,118,0,0,0,3,Image00582.png,12
133,103,121,0,0,0,3,Image00583.png,12
134,103,121,0,0,0,3,Image00584.png,12
134,103,121,0,0,0,3,Image00585.png,12
133,103,121,0,0,0,3,Image00586.png,12
134,102,120,0,0,0,3,Image00587.png,12
134,103,121,0,0,0,3,Image00588.png,12
133,103,121,0,0,0,3,Image00589.png,12
132,104,120,0,0,0,3,Image00590.png,12
132,104,120,0,0,0,3,Image00591.png,12
133,103,119,0,0,0,3,Image00592.png,12
132,104,120,0,0,0,3,Image00593.png,12
132,104,120,0,0,0,3,Image00594.png,12
133,107,117,0,0,0,3,Image00595.png,12
133,105,117,0,0,0,3,Image00596.png,12
133,105,117,0,0,0,3,Image00597.png,12
133,105,117,0,0,0,3,Image00598.png,12
133,107,117,0,0,0,3,Image00599.png,12
133,107,117,0,0,0,3,Image00600.png,12
133,107,117,0,0,0,3,Image00601.png,12
134,104,120,0,0,0,3,Image00602.png,12
134,104,120,0,0,0,3,Image00603.png,12
134,102,120,0,0,0,3,Image00604.png,12
134,104,120,0,0,0,3,Image00605.png,12
133,107,117,0,0,0,3,Image00606.png,12
133,107,117,0,0,0,3,Image00607.png,12
133,107,117,0,0,0,3,Image00608.png,12
133,107,117,0,0,0,3,Image00609.png,12
133,105,117,0,0,0,3,Image00610.png,12
133,107,117,0,0,0,3,Image00611.png,12
133,107,117,0,0,0,3,Image00612.png,12
133,107,117,0,0,0,3,Image00613.png,12
133,107,117,0,0,0,3,Image00614.png,12
134,103,119,0,0,0,3,Image00615.png,12
134,103,119,0,0,0,3,Image00616.png,12
134,103,119,0,0,0,3,Image00617.png,12
134,103,119,0,0,0,3,Image00618.png,12
133,105,121,0,0,0,3,Image00619.png,12
133,104,120,0,0,0,3,Image00620.png,12
133,104,120,0,0,0,3,Image00621.png,12
133,104,120,0,0,0,3,Image00622.png,12
133,107,117,0,0,0,3,Image00623.png,12
133,107,117,0,0,0,3,Image00624.png,12
133,105,117,0,0,0,3,Image00625.png,12
133,105,117,0,0,0,3,Image00626.png,12
133,105,117,0,0,0,3,Image00627.png,12
134,105,119,0,0,0,3,Image00628.png,12
134,105,119,0,0,0,3,Image00629.png,12
134,104,118,0,0,0,3,Image00630.png,12
134,104,118,0,0,0,3,Image00631.png,12
133,102,120,0,0,0,3,Image00632.png,12
133,102,120,0,0,0,3,Image00633.png,12
133,103,121,0,0,0,3,Image00634.png,12
133,103,121,0,0,0,3,Image00635.png,12
133,102,120,0,0,0,3,Image00636.png,12
134,104,118,0,0,0,3,Image00637.png,12
134,104,118,0,0,0,3,Image00638.png,12
134,104,118,0,0,0,3,Image00639.png,12
134,104,118,0,0,0,3,Image00640.png,12
134,104,118,0,0,0,3,Image00641.png,12
134,104,118,0,0,0,3,Image00642.png,12
134,104,118,0,0,0,3,Image00643.png,12
133,103,121,0,0,0,3,Image00644.png,12
133,103,121,0,0,0,3,Image00645.png,12
134,102,120,0,0,0,3,Image00646.png,12
133,103,121,0,0,0,3,Image00647.png,12
132,106,118,0,0,0,3,Image00648.png,12
132,106,118,0,0,0,3,Image00649.png,12
132,106,118,0,0,0,3,Image00650.png,12
132,107,119,0,0,0,3,Image00651.png,12
133,106,118,0,0,0,3,Image00652.png,12
133,106,118,0,0,0,3,Image00653.png,12
134,105,117,0,0,0,3,Image00654.png,12
133,106,118,0,0,0,3,Image00655.png,12
133,103,121,0,0,0,3,Image00656.png,12
133,103,121,0,0,0,3,Image00657.png,12
133,103,121,0,0,0,3,Image00658.png,12
133,103,121,0,0,0,3,Image00659.png,12
133,103,121,0,0,0,3,Image00660.png,12
133,103,121,0,0,0,3,Image00661.png,12
133,103,121,0,0,0,3,Image00662.png,12
132,105,119,0,0,0,3,Image00663.png,12
132,105,119,0,0,0,3,Image00664.png,12
132,105,119,0,0,0,3,Image00665.png,12
132,105,119,0,0,0,3,Image00666.png,12
132,105,119,0,0,0,3,Image00667.png,12
132,105,119,0,0,0,3,Image00668.png,12
132,105,119,0,0,0,3,Image00669.png,12
133,105,117,0,0,0,3,Image00670.png,12
133,105,117,0,0,0,3,Image00671.png,12
133,107,117,0,0,0,3,Image00672.png,12
134,102,120,0,0,0,3,Image00673.png,12
134,102,120,0,0,0,3,Image00674.png,12
133,103,121,0,0,0,3,Image00675.png,12
133,103,121,0,0,0,3,Image00676.png,12
133,103,121,0,0,0,3,Image00677.png,12
134,102,120,0,0,0,3,Image00678.png,12
134,102,120,0,0,0,3,Image00679.png,12
133,107,117,0,0,0,3,Image00680.png,12
134,106,116,0,0,0,3,Image00681.png,12
133,107,117,0,0,0,3,Image00682.png,12
133,107,117,0,0,0,3,Image00683.png,12
133,107,117,0,0,0,3,Image00684.png,12
133,107,117,0,0,0,3,Image00685.png,12
133,107,117,0,0,0,3,Image00686.png,12
133,105,117,0,0,0,3,Image00687.png,12
133,105,117,0,0,0,3,Image00688.png,12
133,107,117,0,0,0,3,Image00689.png,12
134,104,120,0,0,0,3,Image00690.png,12
134,104,120,0,0,0,3,Image00691.png,12
134,104,120,0,0,0,3,Image00692.png,12
134,104,120,0,0,0,3,Image00693.png,12
133,104,120,0,0,0,3,Image00694.png,12
133,104,120,0,0,0,3,Image00695.png,12
133,104,120,0,0,0,3,Image00696.png,12
133,105,117,0,0,0,3,Image00697.png,12
133,107,117,0,0,0,3,Image00698.png,12
133,107,117,0,0,0,3,Image00699.png,12
134,103,119,0,0,0,3,Image00700.png,12
134,103,119,0,0,0,3,Image00701.png,12
134,103,119,0,0,0,3,Image00702.png,12
133,107,117,0,0,0,3,Image00703.png,12
133,107,117,0,0,0,3,Image00704.png,12
133,105,117,0,0,0,3,Image00705.png,12
133,107,117,0,0,0,3,Image00706.png,12
133,107,117,0,0,0,3,Image00707.png,12
133,107,117,0,0,0,3,Image00708.png,12
134,104,118,0,0,0,3,Image00709.png,12
134,104,118,0,0,0,3,Image00710.png,12
134,104,118,0,0,0,3,Image00711.png,12
134,104,118,0,0,0,3,Image00712.png,12
134,104,118,0,0,0,3,Image00713.png,12
134,104,118,0,0,0,3,Image00714.png,12
134,104,118,0,0,0,3,Image00715.png,12
134,104,118,0,0,0,3,Image00716.png,12
134,105,119,0,0,0,3,Image00717.png,12
134,104,118,0,0,0,3,Image00718.png,12
134,104,118,0,0,0,3,Image00719.png,12
