Hue_1,Sat_1,Val_1,Hue_2,Sat_2,Val_2,Color ID,Image_FileName,New_lables
72,42,133,0,0,0,0,Image00528.png,16
72,42,133,0,0,0,0,Image00529.png,16
72,42,133,0,0,0,0,Image00530.png,16
74,45,131,0,0,0,0,Image00545.png,16
73,45,131,0,0,0,0,Image00546.png,16
74,43,135,0,0,0,0,Image00547.png,16
74,43,135,0,0,0,0,Image00548.png,16
74,43,135,0,0,0,0,Image00549.png,16
74,43,135,0,0,0,0,Image00550.png,16
74,45,136,0,0,0,0,Image00551.png,16
74,45,136,0,0,0,0,Image00552.png,16
74,45,136,0,0,0,0,Image00553.png,16
74,43,135,0,0,0,0,Image00554.png,16
73,47,131,0,0,0,0,Image00559.png,16
73,45,131,0,0,0,0,Image00560.png,16
73,45,131,0,0,0,0,Image00561.png,16
73,47,131,0,0,0,0,Image00562.png,16
73,45,131,0,0,0,0,Image00563.png,16
74,47,131,0,0,0,0,Image00564.png,16
73,45,131,0,0,0,0,Image00565.png,16
73,45,131,0,0,0,0,Image00566.png,16
73,45,131,0,0,0,0,Image00567.png,16
72,42,134,0,0,0,0,Image00568.png,16
74,42,134,0,0,0,0,Image00569.png,16
73,43,135,0,0,0,0,Image00570.png,16
72,42,133,0,0,0,0,Image00579.png,16
72,42,133,0,0,0,0,Image00580.png,16
72,42,133,0,0,0,0,Image00581.png,16
72,42,133,0,0,0,0,Image00582.png,16
72,42,133,0,0,0,0,Image00583.png,16
72,42,133,0,0,0,0,Image00584.png,16
72,42,133,0,0,0,0,Image00585.png,16
72,42,133,0,0,0,0,Image00586.png,16
71,42,133,0,0,0,0,Image00587.png,16
72,44,132,0,0,0,0,Image00605.png,16
73,44,132,0,0,0,0,Image00606.png,16
72,43,131,0,0,0,0,Image00607.png,16
72,44,132,0,0,0,0,Image00608.png,16
72,43,131,0,0,0,0,Image00609.png,16
74,43,135,0,0,0,0,Image00610.png,16
74,42,135,0,0,0,0,Image00611.png,16
74,42,135,0,0,0,0,Image00612.png,16
73,45,131,0,0,0,0,Image00615.png,16
73,47,131,0,0,0,0,Image00616.png,16
73,47,131,0,0,0,0,Image00617.png,16
73,47,131,0,0,0,0,Image00618.png,16
74,47,131,0,0,0,0,Image00619.png,16
74,47,131,0,0,0,0,Image00620.png,16
73,47,131,0,0,0,0,Image00621.png,16
73,47,131,0,0,0,0,Image00622.png,16
73,47,131,0,0,0,0,Image00623.png,16
72,42,134,0,0,0,0,Image00624.png,16
71,42,135,0,0,0,0,Image00625.png,16
72,42,134,0,0,0,0,Image00626.png,16
72,42,134,0,0,0,0,Image00627.png,16
72,42,134,0,0,0,0,Image00628.png,16
74,47,135,0,0,0,0,Image00629.png,16
74,47,135,0,0,0,0,Image00630.png,16
73,44,133,0,0,0,0,Image00639.png,16
72,44,133,0,0,0,0,Image00640.png,16
72,44,133,0,0,0,0,Image00641.png,16
72,44,133,0,0,0,0,Image00642.png,16
74,43,135,0,0,0,0,Image00643.png,16
74,43,135,0,0,0,0,Image00644.png,16
72,43,131,0,0,0,0,Image00648.png,16
73,45,131,0,0,0,0,Image00649.png,16
74,45,130,0,0,0,0,Image00658.png,16
73,45,130,0,0,0,0,Image00659.png,16
72,42,134,0,0,0,0,Image00660.png,16
72,42,134,0,0,0,0,Image00661.png,16
72,42,134,0,0,0,0,Image00662.png,16
72,43,132,0,0,0,0,Image00673.png,16
73,44,132,0,0,0,0,Image00674.png,16
73,44,132,0,0,0,0,Image00675.png,16
73,44,132,0,0,0,0,Image00676.png,16
74,43,135,0,0,0,0,Image00677.png,16
74,43,135,0,0,0,0,Image00678.png,16
74,43,135,0,0,0,0,Image00679.png,16
73,44,134,0,0,0,0,Image00864.png,16
74,42,133,0,0,0,0,Image00865.png,16
74,42,133,0,0,0,0,Image00866.png,16
74,44,132,0,0,0,0,Image00873.png,16
74,44,133,0,0,0,0,Image00874.png,16
73,44,133,0,0,0,0,Image00875.png,16
74,43,132,0,0,0,0,Image00876.png,16
74,43,132,0,0,0,0,Image00877.png,16
73,44,133,0,0,0,0,Image00878.png,16
74,44,133,0,0,0,0,Image00887.png,16
73,44,133,0,0,0,0,Image00888.png,16
74,46,133,0,0,0,0,Image00889.png,16
73,44,133,0,0,0,0,Image00890.png,16
74,46,133,0,0,0,0,Image00891.png,16
73,44,133,0,0,0,0,Image00892.png,16
73,44,133,0,0,0,0,Image00893.png,16
74,44,133,0,0,0,0,Image00894.png,16
74,46,133,0,0,0,0,Image00895.png,16
73,44,133,0,0,0,0,Image00896.png,16
73,44,133,0,0,0,0,Image00897.png,16
74,46,133,0,0,0,0,Image00925.png,16
75,43,132,0,0,0,0,Image00926.png,16
75,43,132,0,0,0,0,Image00927.png,16
75,43,132,0,0,0,0,Image00928.png,16
74,44,133,0,0,0,0,Image00929.png,16
74,44,132,0,0,0,0,Image00930.png,16
75,43,132,0,0,0,0,Image00931.png,16
74,44,133,0,0,0,0,Image00932.png,16
75,43,132,0,0,0,0,Image00940.png,16
74,43,132,0,0,0,0,Image00941.png,16
73,44,133,0,0,0,0,Image00949.png,16
74,44,133,0,0,0,0,Image00950.png,16
73,44,133,0,0,0,0,Image00951.png,16
74,44,133,0,0,0,0,Image00952.png,16
74,44,132,0,0,0,0,Image00965.png,16
74,46,134,0,0,0,0,Image00983.png,16
74,46,134,0,0,0,0,Image00984.png,16
74,44,133,0,0,0,0,Image00985.png,16
74,44,133,0,0,0,0,Image00996.png,16
74,42,133,0,0,0,0,Image00998.png,16
74,46,134,0,0,0,0,Image00999.png,16
74,44,133,0,0,0,0,Image01000.png,16
74,44,133,0,0,0,0,Image01001.png,16
73,44,133,0,0,0,0,Image01016.png,16
73,44,133,0,0,0,0,Image01017.png,16
72,42,133,0,0,0,0,Image01018.png,16
73,44,133,0,0,0,0,Image01019.png,16
73,44,133,0,0,0,0,Image01020.png,16
73,44,133,0,0,0,0,Image01021.png,16
