Hue_1,Sat_1,Val_1,Hue_2,Sat_2,Val_2,Color ID,Image_FileName,New_lables
42,30,153,0,0,0,4,Image00004.png,26
42,30,153,0,0,0,4,Image00005.png,26
43,30,153,0,0,0,4,Image00006.png,26
42,30,152,0,0,0,4,Image00012.png,26
42,30,152,0,0,0,4,Image00013.png,26
43,30,153,0,0,0,4,Image00019.png,26
43,32,153,0,0,0,4,Image00020.png,26
42,30,152,0,0,0,4,Image00021.png,26
44,29,152,0,0,0,4,Image00026.png,26
43,30,152,0,0,0,4,Image00027.png,26
43,30,152,0,0,0,4,Image00028.png,26
42,30,152,0,0,0,4,Image00030.png,26
42,30,152,0,0,0,4,Image00031.png,26
42,30,152,0,0,0,4,Image00034.png,26
43,30,153,0,0,0,4,Image00035.png,26
43,30,152,0,0,0,4,Image00046.png,26
47,33,163,0,0,0,4,Image00102.png,26
47,31,163,0,0,0,4,Image00105.png,26
47,31,162,0,0,0,4,Image00111.png,26
47,31,163,0,0,0,4,Image00116.png,26
47,31,162,0,0,0,4,Image00123.png,26
47,31,162,0,0,0,4,Image00126.png,26
47,31,162,0,0,0,4,Image00127.png,26
42,31,149,0,0,0,4,Image00204.png,26
44,33,160,0,0,0,4,Image00442.png,26
43,34,156,0,0,0,4,Image00443.png,26
43,34,156,0,0,0,4,Image00444.png,26
44,34,156,0,0,0,4,Image00449.png,26
44,33,155,0,0,0,4,Image00450.png,26
45,32,157,0,0,0,4,Image00455.png,26
44,34,159,0,0,0,4,Image00461.png,26
43,34,158,0,0,0,4,Image00462.png,26
43,34,159,0,0,0,4,Image00465.png,26
42,32,160,0,0,0,4,Image00474.png,26
42,32,159,0,0,0,4,Image00475.png,26
45,33,156,0,0,0,4,Image00478.png,26
45,33,155,0,0,0,4,Image00479.png,26
44,34,159,0,0,0,4,Image00486.png,26
44,32,158,0,0,0,4,Image00487.png,26
45,32,159,0,0,0,4,Image00488.png,26
48,34,164,0,0,0,4,Image00536.png,26
47,33,163,0,0,0,4,Image00537.png,26
46,33,164,0,0,0,4,Image00539.png,26
46,33,164,0,0,0,4,Image00540.png,26
48,34,165,0,0,0,4,Image00543.png,26
46,34,164,0,0,0,4,Image00544.png,26
43,33,163,0,0,0,4,Image00555.png,26
43,33,163,0,0,0,4,Image00556.png,26
43,33,164,0,0,0,4,Image00557.png,26
42,34,164,0,0,0,4,Image00558.png,26
48,34,164,0,0,0,4,Image00559.png,26
44,34,164,0,0,0,4,Image00562.png,26
43,33,163,0,0,0,4,Image00563.png,26
42,34,164,0,0,0,4,Image00565.png,26
43,33,160,0,0,0,4,Image00623.png,26
42,32,158,0,0,0,4,Image00625.png,26
42,32,159,0,0,0,4,Image00626.png,26
47,32,160,0,0,0,4,Image00627.png,26
47,30,159,0,0,0,4,Image00628.png,26
47,34,158,0,0,0,4,Image00648.png,26
43,30,159,0,0,0,4,Image00653.png,26
43,31,156,0,0,0,4,Image00660.png,26
42,32,159,0,0,0,4,Image00661.png,26
43,30,159,0,0,0,4,Image00662.png,26
43,33,138,0,0,0,4,Image00664.png,26
43,34,142,0,0,0,4,Image00668.png,26
44,34,142,0,0,0,4,Image00669.png,26
46,35,140,0,0,0,4,Image00670.png,26
46,35,140,0,0,0,4,Image00671.png,26
46,35,140,0,0,0,4,Image00672.png,26
46,34,141,0,0,0,4,Image00673.png,26
42,32,142,0,0,0,4,Image00677.png,26
43,34,142,0,0,0,4,Image00678.png,26
42,33,141,0,0,0,4,Image00679.png,26
42,32,142,0,0,0,4,Image00680.png,26
42,33,141,0,0,0,4,Image00681.png,26
43,33,138,0,0,0,4,Image00682.png,26
43,33,138,0,0,0,4,Image00683.png,26
45,33,140,0,0,0,4,Image00687.png,26
46,34,141,0,0,0,4,Image00688.png,26
47,33,141,0,0,0,4,Image00689.png,26
43,33,138,0,0,0,4,Image00690.png,26
42,32,142,0,0,0,4,Image00693.png,26
42,32,142,0,0,0,4,Image00694.png,26
44,31,138,0,0,0,4,Image00695.png,26
45,33,139,0,0,0,4,Image00696.png,26
45,33,139,0,0,0,4,Image00697.png,26
44,31,138,0,0,0,4,Image00698.png,26
46,31,138,0,0,0,4,Image00699.png,26
43,34,142,0,0,0,4,Image00702.png,26
43,34,142,0,0,0,4,Image00703.png,26
46,31,139,0,0,0,4,Image00704.png,26
47,33,140,0,0,0,4,Image00705.png,26
45,33,140,0,0,0,4,Image00706.png,26
42,33,138,0,0,0,4,Image00708.png,26
43,34,142,0,0,0,4,Image00712.png,26
43,34,142,0,0,0,4,Image00713.png,26
47,33,140,0,0,0,4,Image00714.png,26
47,33,140,0,0,0,4,Image00715.png,26
45,33,140,0,0,0,4,Image00716.png,26
47,33,140,0,0,0,4,Image00717.png,26
43,35,138,0,0,0,4,Image00718.png,26
43,35,138,0,0,0,4,Image00719.png,26
43,35,138,0,0,0,4,Image00720.png,26
43,35,138,0,0,0,4,Image00721.png,26
43,32,142,0,0,0,4,Image00724.png,26
42,32,142,0,0,0,4,Image00725.png,26
45,32,142,0,0,0,4,Image00729.png,26
45,33,140,0,0,0,4,Image00733.png,26
46,31,139,0,0,0,4,Image00734.png,26
45,33,140,0,0,0,4,Image00743.png,26
43,32,142,0,0,0,4,Image00752.png,26
43,33,138,0,0,0,4,Image00753.png,26
44,35,139,0,0,0,4,Image00754.png,26
44,31,140,0,0,0,4,Image00757.png,26
43,32,142,0,0,0,4,Image00762.png,26
42,31,138,0,0,0,4,Image00763.png,26
42,33,138,0,0,0,4,Image00764.png,26
47,35,170,0,0,0,4,Image00766.png,26
47,35,170,0,0,0,4,Image00767.png,26
46,35,169,0,0,0,4,Image00768.png,26
46,36,170,0,0,0,4,Image00769.png,26
46,35,169,0,0,0,4,Image00770.png,26
46,35,169,0,0,0,4,Image00773.png,26
47,35,170,0,0,0,4,Image00774.png,26
46,35,170,0,0,0,4,Image00775.png,26
45,36,170,0,0,0,4,Image00776.png,26
46,35,169,0,0,0,4,Image00777.png,26
46,35,170,0,0,0,4,Image00778.png,26
46,35,169,0,0,0,4,Image00779.png,26
44,35,169,0,0,0,4,Image00781.png,26
45,36,170,0,0,0,4,Image00782.png,26
46,35,170,0,0,0,4,Image00783.png,26
44,35,168,0,0,0,4,Image00784.png,26
46,35,169,0,0,0,4,Image00785.png,26
47,34,171,0,0,0,4,Image00786.png,26
46,35,169,0,0,0,4,Image00787.png,26
46,35,170,0,0,0,4,Image00788.png,26
45,33,169,0,0,0,4,Image00790.png,26
46,35,170,0,0,0,4,Image00791.png,26
45,36,172,0,0,0,4,Image00793.png,26
45,33,169,0,0,0,4,Image00794.png,26
46,33,169,0,0,0,4,Image00795.png,26
43,35,169,0,0,0,4,Image00796.png,26
45,36,170,0,0,0,4,Image00797.png,26
45,33,169,0,0,0,4,Image00798.png,26
46,32,169,0,0,0,4,Image00800.png,26
47,29,169,0,0,0,4,Image00807.png,26
47,30,169,0,0,0,4,Image00808.png,26
45,30,169,0,0,0,4,Image00818.png,26
45,30,169,0,0,0,4,Image00820.png,26
44,32,170,0,0,0,4,Image00821.png,26
45,30,169,0,0,0,4,Image00822.png,26
47,30,168,0,0,0,4,Image00824.png,26
47,29,167,0,0,0,4,Image00828.png,26
47,30,168,0,0,0,4,Image00829.png,26
47,29,169,0,0,0,4,Image00830.png,26
47,30,169,0,0,0,4,Image00832.png,26
47,30,169,0,0,0,4,Image00833.png,26
47,30,169,0,0,0,4,Image00836.png,26
46,32,170,0,0,0,4,Image00846.png,26
46,32,170,0,0,0,4,Image00847.png,26
47,29,166,0,0,0,4,Image00850.png,26
46,32,166,0,0,0,4,Image00851.png,26
45,31,167,0,0,0,4,Image00858.png,26
47,29,166,0,0,0,4,Image00859.png,26
47,31,167,0,0,0,4,Image00863.png,26
46,32,167,0,0,0,4,Image00864.png,26
44,29,167,0,0,0,4,Image00865.png,26
45,31,167,0,0,0,4,Image00866.png,26
44,29,166,0,0,0,4,Image00868.png,26
45,31,167,0,0,0,4,Image00869.png,26
45,30,168,0,0,0,4,Image00870.png,26
45,31,167,0,0,0,4,Image00876.png,26
45,31,166,0,0,0,4,Image00877.png,26
45,30,168,0,0,0,4,Image00880.png,26
47,30,168,0,0,0,4,Image00881.png,26
45,31,167,0,0,0,4,Image00882.png,26
45,30,168,0,0,0,4,Image00883.png,26
44,29,167,0,0,0,4,Image00884.png,26
46,29,167,0,0,0,4,Image00885.png,26
44,29,167,0,0,0,4,Image00886.png,26
44,31,166,0,0,0,4,Image00890.png,26
45,30,168,0,0,0,4,Image00891.png,26
44,31,167,0,0,0,4,Image00892.png,26
44,31,167,0,0,0,4,Image00893.png,26
45,31,167,0,0,0,4,Image00896.png,26
47,31,155,0,0,0,4,Image00900.png,26
43,29,156,0,0,0,4,Image00904.png,26
45,30,154,0,0,0,4,Image00910.png,26
45,29,156,0,0,0,4,Image00913.png,26
44,31,155,0,0,0,4,Image00923.png,26
43,31,157,0,0,0,4,Image00931.png,26
45,30,155,0,0,0,4,Image00939.png,26
42,33,156,0,0,0,4,Image00942.png,26
47,29,168,0,0,0,4,Image00948.png,26
47,29,167,0,0,0,4,Image00949.png,26
47,30,168,0,0,0,4,Image00954.png,26
47,29,167,0,0,0,4,Image00956.png,26
45,28,165,0,0,0,4,Image00968.png,26
45,28,165,0,0,0,4,Image00969.png,26
46,29,166,0,0,0,4,Image00970.png,26
46,29,168,0,0,0,4,Image00971.png,26
44,29,165,0,0,0,4,Image00972.png,26
47,29,168,0,0,0,4,Image00976.png,26
46,33,161,0,0,0,4,Image00979.png,26
44,35,160,0,0,0,4,Image00980.png,26
42,34,163,0,0,0,4,Image00981.png,26
42,36,163,0,0,0,4,Image00982.png,26
46,35,160,0,0,0,4,Image00983.png,26
46,35,161,0,0,0,4,Image00984.png,26
42,35,161,0,0,0,4,Image00985.png,26
42,34,163,0,0,0,4,Image00986.png,26
46,35,160,0,0,0,4,Image00988.png,26
42,34,163,0,0,0,4,Image00993.png,26
44,35,161,0,0,0,4,Image00994.png,26
42,36,161,0,0,0,4,Image00995.png,26
43,36,163,0,0,0,4,Image01000.png,26
44,34,163,0,0,0,4,Image01001.png,26
45,34,163,0,0,0,4,Image01002.png,26
46,36,164,0,0,0,4,Image01005.png,26
45,35,162,0,0,0,4,Image01006.png,26
44,36,161,0,0,0,4,Image01008.png,26
46,36,163,0,0,0,4,Image01010.png,26
46,36,162,0,0,0,4,Image01011.png,26
46,35,161,0,0,0,4,Image01012.png,26
46,35,161,0,0,0,4,Image01013.png,26
46,35,161,0,0,0,4,Image01014.png,26
42,34,163,0,0,0,4,Image01015.png,26
46,35,161,0,0,0,4,Image01016.png,26
45,26,157,0,0,0,4,Image01115.png,26
45,26,157,0,0,0,4,Image01116.png,26
44,27,158,0,0,0,4,Image01118.png,26
44,27,158,0,0,0,4,Image01119.png,26
45,26,156,0,0,0,4,Image01130.png,26
46,27,158,0,0,0,4,Image01132.png,26
45,26,158,0,0,0,4,Image01134.png,26
44,27,158,0,0,0,4,Image01144.png,26
